%YAML 1.1
%TAG !u! tag:unity3d.com,2011:
--- !u!1045 &1
EditorBuildSettings:
  m_ObjectHideFlags: 0
  serializedVersion: 2
  m_Scenes:
  - enabled: 1
    path: Assets/Scenes/MainMenu.unity
    guid: 2cda990e2423bbf4892e6590ba056729
  - enabled: 1
    path: Assets/Scenes/Instruction.unity
    guid: ebf173e8a2dfc4f4e980c8d314b2fa73
  - enabled: 1
    path: Assets/Scenes/Level1.unity
    guid: 1badc374be8ccc1429b7966f79220125
  - enabled: 1
    path: Assets/Scenes/GameOver.unity
    guid: 5972d14fc0595b441aab9a3d27066130
  - enabled: 1
    path: Assets/Scenes/level2.unity
    guid: 974f16cbf6b0111489d5c2ad076867ec
  m_configObjects: {}
